327628 495421 449
553522 537100 452
637219 372521 509
893117 571210 525
350730 953481 525
862246 552775 525
261229 759185 509
582500 483704 470
600681 143183 470
960085 828772 525
108344 810037 509
345667 279380 389
195001 636833 509
943710 684597 525
974083 984731 427
21438 189778 383
103597 237986 443
339430 547130 470
659132 636771 429
640491 597161 509
866731 41443 525
52211 455688 449
752722 38320 509
258249 237243 368
733386 209441 509
551947 902793 525
404015 782363 509
318998 502794 449
296992 909819 525
567842 325576 470
340512 812251 509
421780 728525 509
48451 954994 525
817891 728669 468
626548 649037 416
632048 502872 509
540260 141654 470
247343 218767 443
168322 577696 470
709290 399227 509
704580 46576 509
883731 987384 507
410149 304603 449
910814 922171 432
910334 524572 525
868365 782896 525
157123 397347 443
140847 62596 354
236941 480359 449
519813 733169 509
38182 558206 470
461275 565225 470
760080 367782 509
767481 784770 468
612058 393147 470
741218 141850 509
594345 741202 509
518290 200136 470
406248 866688 525
882453 753592 525
353241 672743 509
636707 753987 504
668861 780980 504
447988 873150 525
580038 910246 525
332847 603153 470
984000 168736 525
798797 435412 509
652113 133113 509
584153 417265 470
69491 942299 525
359379 937786 525
810336 44698 509
387393 642001 509
879852 837371 525
633955 943344 525
24049 561116 470
155997 60561 375
605994 533192 452
323522 776814 509
551744 399415 470
104314 541868 470
891333 334243 525
652144 255869 509
121171 30436 354
637702 75008 509
66552 192184 383
592375 86236 470
760648 947979 525
84992 163435 383
227500 939603 525
382018 430278 449
393463 49808 443
32901 389328 443
909312 420302 525
460748 29868 449
660794 566379 509
873667 980761 507
287903 1541 443
182722 83150 383
513993 431096 470
163212 161554 339
804115 616800 509
182336 612928 470
483411 991364 525
585696 225570 470
470867 994277 525
256463 540540 470
273510 693608 509
789998 971213 525
881942 648084 525
58408 784570 509
899015 379676 525
687538 137982 509
993267 449803 525
540498 98781 470
864236 461644 525
488933 210210 449
948586 321933 525
375986 450888 449
86227 320719 443
868397 517037 525
910833 8387 525
268187 241246 407
162561 169001 352
657725 880256 525
120434 86770 354
944772 324327 525
662682 989335 525
207079 864908 525
40074 549489 470
972392 623807 525
354721 953964 525
37104 380496 443
526530 11475 470
743224 320012 509
343515 15891 443
481543 633640 509
340418 923598 525
621873 770906 509
997493 532690 525
424669 995420 525
174570 733962 509
487870 919475 525
675848 399421 509
92932 144074 375
554488 144171 470
328217 79696 443
130892 54823 354
557155 627387 509
834661 952759 525
53184 469408 449
379234 813050 509
986017 874177 507
408986 308731 441
764948 679916 504
297376 484146 449
363902 30312 443
25247 811632 509
791525 254302 509
795303 905421 525
573882 415381 470
31533 623023 470
5512 346957 443
124354 513249 470
512903 548137 452
732212 359769 509
871901 11169 525
590447 365080 470
376189 708356 509
590933 931149 525
406385 608115 470
307002 685367 509
7431 797124 509
528431 169777 470
231857 215872 443
484127 339787 449
828680 627344 504
823343 67829 509
162364 31218 383
757978 545899 509
730691 98503 509
926483 170629 525
243410 927393 525
689726 492513 509
605512 806276 509
335853 598951 470
450727 469776 444
94206 934551 525
815139 407512 509
861599 314974 525
757992 410056 509
767773 110476 509
576634 205687 470
398514 566208 470
95732 994278 525
412819 104248 449
122274 217323 386
374922 917795 525
361408 348965 410
658970 795309 504
513428 67436 470
901227 794414 525
955950 689346 525
254748 540041 470
369749 650020 509
893495 935991 476
26200 472710 449
584309 821278 509
887253 558186 525
367980 494462 449
773994 740527 468
818005 734941 468
500078 606300 470
351113 157983 443
546606 311328 470
357062 861770 525
935150 562039 525
916454 386624 525
308768 619952 470
611779 47923 470
605933 355554 470
757956 274619 509
431430 45072 449
321122 569085 470
961801 418386 525
757402 375206 509
636685 702476 442
219083 482791 449
339851 785749 509
517070 944632 525
854217 561101 525
516290 234028 470
984175 234478 525
683465 446769 509
929529 328467 525
710625 558056 509
327815 716715 509
336852 634150 509
136113 140977 344
936938 256803 525
186084 410146 449
739504 66718 509
813190 154933 509
673012 655836 442
931526 587853 525
561759 571864 421
58065 737418 509
107028 84346 354
645431 324587 509
409023 633505 509
464069 720589 509
325652 393565 441
339337 427007 449
678943 43014 509
334 422192 449
768393 281467 509
856388 786565 525
309032 242486 407
228504 458981 449
42313 962753 525
871546 279632 525
996605 906364 507
823658 246630 509
284216 836957 509
418502 141230 449
636235 739956 504
197131 918126 525
693032 690489 442
52845 19429 340
531070 515591 439
393365 161425 443
464510 880014 525
939412 1459 525
568456 14062 470
377896 990028 525
962786 520609 525
732804 593037 509
180499 158943 370
362614 374882 392
111013 932256 525
859456 605629 525
409083 677539 509
152991 922752 525
500927 190996 449
795966 67453 509
650503 559526 509
22415 28263 308
61374 216191 383
186266 886311 525
616764 968949 525
978374 995690 427
359216 197281 443
41136 838845 525
53526 915261 525
508595 534291 470
701753 184571 509
628183 974905 525
737852 925695 525
648697 965465 525
