507408 480917 426
195905 966461 525
793119 834538 468
779706 981936 525
93132 537057 470
815575 483471 509
386279 643766 509
539853 783987 509
929527 57004 525
247677 496659 449
750744 341235 509
212134 750878 509
694203 670716 442
119066 902966 525
110442 152220 375
780932 340470 509
766612 755649 380
315013 775158 509
757291 911515 525
654065 421789 509
749257 572626 509
159919 840367 525
670617 811605 504
329122 499513 449
679456 748197 504
101203 858496 525
969966 627757 525
715339 542963 509
742424 469806 509
27500 234069 443
513342 271579 470
414406 424261 418
701931 480143 509
173274 639741 509
729684 960622 525
570993 142851 470
913439 543534 525
702678 903922 525
778244 892310 525
117712 254725 443
206752 38769 383
967930 375494 525
189166 263217 443
255607 759733 509
550929 912018 525
270755 553399 470
997134 753936 525
785826 367290 509
573634 778597 509
898243 821746 525
774071 439115 509
587377 305706 470
456202 320028 449
330966 905824 525
906596 2736 525
376080 10114 443
823554 627917 504
347956 630761 509
628765 211228 509
229014 181521 386
357105 679723 509
938361 140593 525
347587 100674 443
176552 591378 470
967919 463626 525
866642 627855 525
478872 789711 509
436000 828374 509
541964 417624 470
261787 275762 407
355271 654327 509
851684 987205 507
133231 214572 383
233549 49805 443
989849 351990 525
770060 225995 509
612094 702141 509
212887 618889 470
989271 346301 525
911191 828211 525
176470 352563 443
593731 810815 509
427018 614431 470
603067 779309 509
138616 295012 443
739758 302032 509
494961 69020 449
451160 994012 525
641411 148738 509
973398 775704 525
970461 876419 507
129315 890779 525
419022 353860 449
879320 97102 525
897644 31551 525
924031 900870 476
115988 681999 509
740187 76512 509
162215 424734 449
283100 200801 443
130781 142543 344
851775 896441 445
981208 70623 525
177591 107387 383
918671 254358 525
717072 286315 509
691710 94062 509
347091 209706 443
997465 323457 525
987541 119805 525
930638 399102 525
143520 87229 375
313252 469981 449
557015 412357 470
403489 677563 509
100914 227152 386
686201 160508 509
20839 460544 449
354557 964876 525
140670 555932 470
715217 277273 509
526860 162512 470
946859 769721 525
357881 17108 443
584707 142138 470
848676 895148 445
907279 244458 525
293543 191208 443
763194 474505 509
185577 412573 449
366863 666258 509
670065 158545 509
483901 588747 470
993923 49585 525
747037 600132 509
456453 153445 449
158917 218488 386
501075 790195 509
584615 969568 525
109165 7370 354
278797 971096 525
301570 787662 509
103409 974174 525
842720 143063 525
51582 49779 309
658856 433693 509
688129 60647 509
105183 268819 443
586017 670332 509
797943 831821 450
958415 486899 525
399132 242142 441
663104 958228 525
881369 755894 525
77735 258858 443
974004 274705 525
958347 100741 525
202605 595685 470
498588 546878 470
539255 610421 452
818459 463888 509
304748 192919 443
70525 276706 443
315153 72023 443
390940 856006 525
419646 412154 387
369875 623801 470
921169 991614 507
847716 570436 525
243056 758921 509
979137 959436 458
20304 149296 375
571494 813321 509
930606 292174 525
723995 296995 509
365275 23411 443
482382 499146 426
416249 649067 509
189786 288735 443
533110 362032 470
56702 415381 449
392683 740046 509
201204 337303 443
806758 947114 525
626361 302695 509
309593 224445 443
835407 590068 509
707361 797071 468
89979 199277 383
757895 499836 509
958571 964065 414
531529 168779 470
717003 772758 468
919735 162609 525
547359 870239 525
590690 953029 525
771058 484816 509
574009 977650 525
156709 542160 470
638795 279787 509
330920 589504 470
861337 911570 476
417487 520814 470
580121 868577 525
554277 561179 390
175800 588442 470
118503 843389 525
720814 327796 509
386048 761817 509
73973 579220 470
576837 997480 525
154332 695461 509
919553 271124 525
17657 725879 509
116671 236677 443
595433 986265 525
98646 425076 449
273114 861838 525
942633 234943 525
758813 83034 509
193447 65167 383
509701 658724 509
959880 360744 525
396155 794401 509
2405 432276 449
45268 490751 449
270741 400600 441
861900 178211 525
530741 17089 470
716999 435782 509
334443 243062 407
73080 490600 449
121404 766849 509
991849 955356 458
899439 922533 476
292179 745647 509
332782 387532 441
315304 531400 470
908998 194631 525
51311 318288 443
320293 645414 509
381604 381435 255
564699 626543 509
825925 702356 504
350470 314647 441
573746 517030 452
605646 111800 470
107415 816177 509
844040 626589 525
648049 383279 509
948988 839087 507
504949 859996 525
268960 368932 441
233142 261685 381
237237 775401 509
932568 792377 525
990986 762967 525
726813 748819 424
491770 8054 449
928661 639388 525
875101 401475 525
221845 352677 443
623144 377978 470
927685 550752 525
272157 555928 470
51445 199710 383
803933 955640 525
186785 236671 443
359319 906504 525
242717 280482 407
485058 908204 525
957884 421043 525
184848 858674 525
901906 27326 525
507709 43588 449
365800 211919 443
925410 799093 525
606600 460698 470
619160 674959 509
163708 83592 383
412014 205067 449
866269 792746 525
387358 816348 509
459078 934917 525
505307 53467 449
622259 113064 470
728287 393896 509
634338 392683 509
98649 998210 525
620323 260594 470
64395 288397 443
126382 431621 449
553317 366049 470
445413 166315 449
954731 192737 525
910789 315752 525
841573 686754 525
881186 275906 525
774710 555080 509
519173 593770 452
