374376 138416 443
722405 514864 509
650082 26596 509
270175 413411 449
440179 85612 449
180435 77383 383
645251 733399 504
257486 975123 525
374962 922458 525
175142 174529 303
812850 207484 509
360536 484873 449
302179 303389 340
963956 580276 525
964150 73948 525
347837 20783 443
281563 193366 443
474827 294167 449
728592 74646 509
115322 650371 509
835745 553724 509
698343 728154 504
514100 399779 470
260034 785882 509
380094 638452 509
800279 344515 509
480004 997391 525
957590 351520 525
205083 823528 509
502215 41741 449
864772 657060 525
917608 848823 476
138438 795949 509
114316 377356 443
315837 767318 509
78962 400008 443
841063 460219 525
492015 887689 525
81374 806130 509
876107 625017 525
725696 414863 509
943909 551103 525
146523 794624 509
120280 838449 525
788098 629238 504
462671 258735 449
961175 753226 525
182410 207748 373
719119 613576 509
304743 505610 449
279480 470750 449
447661 121250 449
161093 592795 470
153431 533345 470
821818 37175 509
456403 566998 470
346015 317777 441
243756 673256 509
85219 186972 383
40871 436104 449
505352 508148 382
925715 600994 525
642262 560731 509
211547 305847 443
996095 978036 427
594163 15645 470
795903 167783 509
980139 643812 525
390659 919852 525
778188 97967 509
688048 924867 525
768012 692112 504
766054 305690 509
219441 515772 470
945740 671922 525
300730 793975 509
518210 900144 525
896582 54756 525
781599 580453 509
744351 706301 424
34785 138013 354
323069 982715 525
402855 940304 525
509574 371237 449
366787 541306 470
586474 170445 470
639463 483229 509
466083 861806 525
975729 894840 507
68388 238016 443
459095 346560 449
519145 320096 470
490770 114577 449
781451 649203 504
411413 133895 449
969193 315121 525
320777 194877 443
558250 158207 470
582212 399021 470
662183 936808 525
885389 924214 476
158001 18052 383
534639 10786 470
921006 270896 525
6904 377177 443
693401 602883 509
732074 544777 509
735341 412270 509
904768 392994 525
702174 739968 504
773040 594366 509
880270 308807 525
475206 930639 525
350232 9503 443
206321 140971 383
492904 789740 509
121509 281475 443
684801 376859 509
101767 263823 443
901859 699199 525
508317 332790 449
586246 510078 470
372971 549130 470
902950 610138 525
867789 387081 525
657054 173612 509
391160 154775 443
782150 351648 509
523600 781963 509
979080 707584 525
659843 863252 525
621810 223082 470
157697 346453 443
468381 141010 449
269636 86063 443
917031 929688 476
353228 288208 441
192222 121823 383
536570 832445 509
954273 696760 525
266180 156895 443
444669 493687 444
79875 680541 509
834322 706054 468
717295 589458 509
555681 718273 509
724501 389439 509
897178 461371 525
598089 771912 509
91651 176967 383
665702 12280 509
572086 985338 525
969620 527841 525
683690 653717 442
464695 842685 525
229785 629639 509
826727 81849 509
947389 332960 525
739659 44629 509
509483 118004 449
757891 4147 509
576520 446356 470
23094 220033 386
556217 880246 525
201570 339966 443
676184 186709 509
867489 885364 432
693525 203674 509
544030 83153 470
835538 273217 509
38705 715949 509
355246 33994 443
502576 447779 444
563932 989081 525
399423 329604 441
953681 350096 525
425950 908622 525
673769 443331 509
251182 500903 449
665980 384009 509
869176 604510 525
467235 965036 525
95371 302322 443
959247 465942 525
510760 387119 449
931832 339592 525
389032 421893 449
513040 971393 525
751072 710957 424
707916 691822 504
977326 90208 525
198805 466019 449
535115 561062 452
536341 639718 509
951501 311994 525
76828 513366 470
186105 176475 365
165 749170 509
145414 705387 509
250193 928884 525
