28826 1427 308
85834 22101 351
59022 49048 340
12551 16006 276
30380 80210 351
93481 41823 351
13398 11715 276
47123 9307 324
28523 41696 324
51490 31574 324
88976 61772 351
82254 17816 351
13916 34467 311
95199 51628 351
7008 32756 308
77737 7246 351
67185 85670 351
87078 90467 333
13459 86395 351
42063 64195 340
57220 46033 340
81782 97041 333
1475 23781 282
42051 29835 324
85563 7955 351
27657 87388 351
431 17720 279
10693 2319 262
62596 2936 340
76242 62271 330
88133 21756 351
43787 37609 306
79895 79091 307
29214 48963 324
1243 27001 308
86601 69862 351
68089 99317 351
21077 9126 279
70447 70460 144
72683 74946 325
87701 49043 351
26455 72823 340
8075 34097 308
35992 46927 314
68514 50691 340
9440 26614 282
34468 9418 311
70830 40398 340
43714 88607 351
61926 59800 335
93784 60950 351
76202 92403 351
59422 84544 351
30328 44001 324
7790 95722 351
97759 65508 351
16556 88451 351
69598 74889 325
69527 69019 281
35067 50394 324
55403 76007 335
4541 83031 351
21521 88065 351
84839 46495 351
36580 73837 340
32370 53800 340
37567 5846 324
98117 86446 333
8808 65526 340
53459 67016 335
82804 40372 351
64370 64214 299
52822 87240 351
63603 4502 340
69287 99546 351
96835 97399 266
87507 90217 333
35549 93636 351
61406 28999 340
47881 82402 351
36753 11713 324
61397 98869 351
31397 68221 340
79087 98300 333
63243 40348 340
70940 98269 351
90645 35423 351
38712 54267 340
45284 27141 324
13067 63876 340
59248 30578 340
38531 35559 324
76429 63532 325
43412 83555 351
44384 81023 351
48041 45338 314
88062 90145 315
1989 69060 340
11229 33487 308
49467 75360 340
7258 37174 324
9222 73157 340
81222 95949 333
46918 99191 351
51469 82943 351
56248 70933 335
46884 35911 314
45872 52688 340
55119 73589 335
62197 89014 351
14156 76845 340
19386 14027 279
13343 21614 279
12917 43449 324
33467 62736 340
14685 44766 324
52746 67335 335
73509 48068 340
29241 6308 308
69679 23695 340
81027 98298 333
50319 84463 351
69176 46238 340
53085 8660 340
75274 96647 351
33846 74337 340
11828 48917 324
1104 53338 340
43048 4079 324
32856 72887 340
16787 1732 276
77738 21371 351
6766 57395 340
40012 27646 324
58308 85702 351
94120 75653 351
6971 65273 340
13507 82516 351
45025 16473 324
50559 22234 324
41077 68807 340
58985 72234 335
39182 63835 340
95872 52714 351
73804 85445 351
49603 92932 351
98777 31343 351
18069 86842 351
79292 73087 351
8017 73686 340
71578 12409 340
86755 94687 333
96009 43809 351
31370 25192 308
31634 89085 351
81417 76003 351
49986 89880 351
56452 43923 340
35885 6435 324
32797 9407 308
62272 24407 340
89867 86402 333
2050 60982 340
56083 77951 351
17989 24111 282
27782 31825 285
38351 97535 351
58295 76321 335
10496 81141 351
72791 39857 340
41151 58766 340
47471 43605 314
33381 97279 351
55097 62561 335
98022 76785 351
95004 78205 338
61527 71207 330
2274 94006 351
80576 30779 351
57687 66126 335
32000 24326 308
19072 9043 279
34391 64606 340
47638 28269 324
7477 56665 340
19166 88849 351
95868 27440 351
7878 20595 279
24404 98912 351
99965 81912 333
23147 71465 340
88271 98665 333
45574 28409 324
60957 74595 335
75497 7715 340
20693 78892 351
97471 67401 351
69299 85312 351
89127 29625 351
66900 38665 340
