788679 909789 525
698909 422880 509
764345 663358 504
225440 545409 470
185884 528966 470
574938 868473 525
351005 341686 441
326230 143498 443
656693 155795 509
764169 440203 509
125181 664599 509
888340 25124 525
834651 712574 468
465902 885559 525
447819 633264 509
716747 359453 509
16865 108280 354
720107 434204 509
509847 735886 509
913985 411227 525
51535 522135 470
122248 798108 509
700694 63091 509
388953 486487 449
696265 273671 509
525467 501342 470
496407 136761 449
683143 866153 525
607277 95674 470
452800 418421 418
152514 393704 443
961997 731367 525
369707 876431 525
192056 650114 509
736797 515582 509
268994 334495 407
229140 187698 386
796048 115625 509
287120 46496 443
390163 919707 525
434523 164748 449
460799 490045 444
129476 989632 525
926663 147039 525
352638 554971 470
4407 365994 443
641407 324391 509
423093 23830 449
764260 1381 509
419203 768343 509
995959 635380 525
649165 597459 509
2190 877446 525
719879 400935 509
671317 294698 509
382440 913281 525
841283 239678 525
560223 254207 470
761280 888907 525
289739 991660 525
300669 714343 509
341129 452617 449
371745 832102 509
754910 828013 468
768275 384734 509
782538 470789 509
638336 356481 509
750606 669781 504
107858 995394 525
181959 97268 383
150348 321824 443
101719 74208 351
658649 39708 509
832232 774815 468
816158 535289 509
738130 500858 509
287817 547246 470
321193 196121 443
455260 522929 470
784449 442767 509
905866 637302 525
685882 283865 509
652077 944331 525
584371 350134 470
105155 155003 375
643970 934018 525
656715 91799 509
7325 850459 525
831664 956395 525
375048 151300 443
367802 165464 443
635065 19038 509
250203 658946 509
574436 455678 470
682578 265754 509
675873 703715 442
213178 923825 525
752175 688854 504
749397 294602 509
703995 157807 509
993101 586399 525
999850 599601 525
907777 206831 525
572015 485089 470
188986 201341 360
697903 836883 504
351176 303079 441
93776 650773 509
966786 818747 525
886094 229657 525
797642 505724 509
345544 62364 443
44044 57696 340
269769 482260 449
703489 809161 504
683040 974305 525
78887 793617 509
84583 664300 509
805159 345879 509
822019 220329 509
373543 25913 443
292336 123937 443
24431 759718 509
580036 27404 470
52527 742214 509
830591 703470 504
22119 827735 509
127065 915197 525
125655 845690 525
888711 386156 525
935437 522053 525
842627 934953 476
96035 461811 449
432981 753122 509
84174 953138 525
127075 751692 509
23203 190976 383
453478 879325 525
680812 885880 525
764700 323638 509
201554 123400 383
655331 547431 509
829811 769899 468
686319 182783 509
864221 682691 525
567036 908538 525
351133 475473 449
228981 570497 470
572568 614490 434
288482 968645 525
213224 176511 373
240468 932077 525
201436 686613 509
351341 529765 470
610584 71954 470
626247 524157 452
680324 917074 525
414481 464599 444
971083 887026 507
186508 138873 383
900638 396416 525
767056 453681 509
428186 345747 449
840965 198702 525
449171 20742 449
861934 563876 525
543231 56085 470
589074 725864 509
77978 701860 509
352108 297171 441
312934 499191 449
803313 940212 525
70792 870950 525
352766 988636 525
747263 64101 509
703188 489503 509
916148 342146 525
901648 682479 525
552841 319303 470
107625 565957 470
947355 852457 507
840384 865094 419
707036 962607 525
813394 413020 509
859493 844422 419
589423 684012 509
957891 140694 525
197234 976232 525
263568 307905 407
539253 531656 377
535061 79756 470
889314 702097 525
688005 747446 504
30545 122810 354
606892 218654 470
615722 738876 509
687624 591561 509
145870 444709 449
268822 285969 407
557596 43201 470
970242 610407 525
785676 208659 509
98242 12380 351
824583 146419 509
701084 158216 509
751147 682075 504
560985 419753 470
890276 584568 525
395141 306899 441
806618 29877 509
804595 878368 525
87279 245901 443
57634 187237 383
944206 544110 525
623525 373670 470
509551 139851 449
482744 104053 449
323299 390737 441
631440 673962 442
919713 341349 525
870764 241780 525
607572 752468 509
925752 340455 525
508940 114416 449
173827 26827 383
672178 496566 509
779580 771051 437
607110 468899 470
830359 463152 509
903775 746517 525
146249 719304 509
690875 654303 442
798437 7449 509
566048 986480 525
11523 979931 525
287293 344583 389
48179 800340 509
953364 577413 525
878705 182306 525
620682 517835 452
923336 320018 525
305252 813795 509
921770 883319 476
100372 284769 443
32259 774685 509
704317 899832 525
591676 401035 470
996970 169887 525
578349 800263 509
430296 474078 444
